14,0,None,None,
34,1,None,None,
16,0,None,None,
109,1,None,None,
76,0,None,None,
0,0,None,None,
76,0,None,None,
54,0,None,None,
98,1,None,None,
11,0,None,None,
29,0,None,None,
40,0,None,None,
47,0,None,None,
0,0,None,None,
43,0,None,None,
21,0,None,None,
