38,1,None,None,
56,0,None,None,
61,0,None,None,
29,0,None,None,
66,0,None,None,
93,1,None,None,
66,0,None,None,
31,0,None,None,
32,0,None,None,
7,0,None,None,
21,1,None,None,
36,0,None,None,
31,0,None,None,
0,0,None,None,
20,0,None,None,
20,0,None,None,
