147,1,None,None,
83,1,None,None,
137,1,None,None,
59,0,None,None,
58,0,None,None,
107,0,None,None,
179,1,None,None,
16,0,None,None,
51,0,None,None,
120,1,None,None,
116,0,None,None,
48,0,None,None,
86,0,None,None,
121,0,None,None,
90,1,None,None,
106,2,None,None,
