11,0,None,None,
42,2,None,None,
31,0,None,None,
25,0,None,None,
34,0,None,None,
78,0,None,None,
63,0,None,None,
49,0,None,None,
0,0,None,None,
0,0,None,None,
47,0,None,None,
20,0,None,None,
0,0,None,None,
68,1,None,None,
0,0,None,None,
64,0,None,None,
