0,0,None,None,
0,0,None,None,
34,1,None,None,
29,1,None,None,
15,1,None,None,
23,0,None,None,
13,0,None,None,
15,0,None,None,
14,0,None,None,
16,0,None,None,
26,1,None,None,
36,0,None,None,
12,2,None,None,
9,0,None,None,
8,0,None,None,
39,0,None,None,
