4,0,None,None,
45,0,None,None,
19,1,None,None,
6,0,None,None,
43,0,None,None,
54,0,None,None,
13,1,None,None,
0,0,None,None,
23,0,None,None,
41,0,None,None,
39,0,None,None,
33,0,None,None,
37,0,None,None,
27,0,None,None,
49,1,None,None,
6,0,None,None,
