9,0,None,None,
33,2,None,None,
0,0,None,None,
0,0,None,None,
34,1,None,None,
19,0,None,None,
20,0,None,None,
24,1,None,None,
11,0,None,None,
37,0,None,None,
0,0,None,None,
44,1,None,None,
0,0,None,None,
0,0,None,None,
