0,0,None,None,
3,1,None,None,
0,0,None,None,
31,0,None,None,
0,0,None,None,
0,0,None,None,
13,0,None,None,
1,0,None,None,
3,0,None,None,
30,0,None,None,
14,0,None,None,
38,0,None,None,
42,0,None,None,
7,1,None,None,
17,1,None,None,
89,1,None,None,
