9,0,None,None,
7,0,None,None,
70,0,None,None,
15,0,None,None,
48,1,None,None,
0,0,None,None,
21,0,None,None,
62,0,None,None,
0,0,None,None,
0,0,None,None,
73,1,None,None,
15,0,None,None,
31,0,None,None,
16,0,None,None,
