0,0,None,None,
0,0,None,None,
0,0,None,None,
0,0,None,None,
11,0,None,None,
0,0,None,None,
16,0,None,None,
15,0,None,None,
0,0,None,None,
0,0,None,None,
25,0,None,None,
12,0,None,None,
56,0,None,None,
45,0,None,None,
8,0,None,None,
119,3,None,None,
