4,0,None,None,
10,0,None,None,
20,0,None,None,
38,0,None,None,
0,0,None,None,
0,0,None,None,
15,0,None,None,
0,0,None,None,
0,0,None,None,
0,0,None,None,
0,0,None,None,
46,0,None,None,
77,0,None,None,
14,0,None,None,
48,1,None,None,
61,1,None,None,
