20,0,None,None,
9,0,None,None,
22,0,None,None,
30,0,None,None,
3,1,None,None,
0,0,None,None,
74,0,None,None,
23,1,None,None,
40,0,None,None,
0,0,None,None,
7,0,None,None,
0,0,None,None,
9,0,None,None,
9,0,None,None,
0,0,None,None,
49,0,None,None,
