18,0,None,None,
23,1,None,None,
33,0,None,None,
47,0,None,None,
21,0,None,None,
38,0,None,None,
11,0,None,None,
25,0,None,None,
37,0,None,None,
7,0,None,None,
6,0,None,None,
13,0,None,None,
16,0,None,None,
0,0,None,None,
7,0,None,None,
