6,0,None,None,
0,0,None,None,
4,0,None,None,
0,0,None,None,
0,0,None,None,
26,0,None,None,
13,0,None,None,
12,0,None,None,
2,0,None,None,
15,0,None,None,
25,0,None,None,
0,0,None,None,
5,0,None,None,
42,0,None,None,
40,2,None,None,
