13,0,None,None,
20,0,None,None,
36,0,None,None,
52,0,None,None,
69,0,None,None,
55,1,None,None,
52,1,None,None,
0,0,None,None,
53,0,None,None,
18,0,None,None,
63,1,None,None,
8,0,None,None,
35,0,None,None,
30,0,None,None,
73,1,None,None,
62,0,None,None,
