224,0,1,14,2,0,
279,1,0,59,4,0,
297,2,0,32,1,0,
255,1,0,21,5,0,
326,2,2,1,2,0,
281,0,1,27,0,0,
399,1,0,27,7,0,
316,1,2,50,0,0,
188,3,0,8,0,0,
231,2,0,35,1,0,
297,1,1,21,0,0,
170,1,1,22,0,0,
197,3,0,22,0,0,
229,0,1,16,0,0,
309,1,1,0,0,1,
301,2,1,3,2,0,
