329,3,3,5,0,0,
222,0,1,5,16,1,
192,0,1,19,0,0,
245,0,1,19,0,0,
377,2,1,33,0,0,
322,2,1,25,6,0,
161,1,1,11,4,0,
262,2,1,40,9,0,
290,1,0,17,0,0,
205,0,0,0,0,0,
197,2,0,13,3,0,
151,1,0,8,9,0,
186,1,0,15,24,0,
257,0,2,19,1,1,
202,2,2,2,19,0,
292,1,1,4,8,0,
