286,1,4,0,6,0,
347,3,0,18,8,0,
262,2,1,7,10,0,
307,2,0,21,5,0,
183,2,0,13,1,0,
217,2,0,8,9,0,
310,2,1,13,6,0,
199,0,0,56,6,0,
274,2,2,45,9,0,
220,1,0,5,6,0,
236,0,2,14,0,0,
245,1,1,37,2,0,
101,0,0,5,7,0,
208,1,0,0,0,0,
116,0,0,11,0,0,
266,2,0,2,2,0,
