93,1,None,None,
67,0,None,None,
50,1,None,None,
62,1,None,None,
101,2,None,None,
105,1,None,None,
74,2,None,None,
42,1,None,None,
96,1,None,None,
117,1,None,None,
67,0,None,None,
154,1,None,None,
35,0,None,None,
49,1,None,None,
185,2,None,None,
