103,0,2,0,15,0,
100,0,0,8,51,0,
344,2,1,17,46,1,
129,0,1,8,10,0,
117,0,0,66,25,0,
237,1,1,11,38,0,
240,2,0,25,32,1,
228,2,0,14,21,0,
85,0,1,19,17,0,
303,2,0,43,28,0,
282,2,1,9,43,0,
162,0,1,0,13,0,
88,0,0,8,11,0,
110,0,0,15,7,0,
